{
  "compilerOptions": {
    "baseUrl": ".",
    "paths": {
      "@/components/*": ["components/*"],
      "@/pages/*": ["pages/*"],
      "@/assets/*": ["assets/*"],
      "@/store": ["store"],
      "@/store/*": ["store/*"],
      "@/styles/*": ["styles/*"],
      "@/utils/*": ["utils/*"],
    }
  }
}