<?xml version="1.0" encoding="UTF-8"?>
<svg width="96" height="288" version="1.1" viewBox="0 0 25 76" xmlns="http://www.w3.org/2000/svg" xmlns:cc="http://creativecommons.org/ns#" xmlns:dc="http://purl.org/dc/elements/1.1/" xmlns:rdf="http://www.w3.org/1999/02/22-rdf-syntax-ns#">
 <metadata>
  <rdf:RDF>
   <cc:Work rdf:about="">
    <dc:format>image/svg+xml</dc:format>
    <dc:type rdf:resource="http://purl.org/dc/dcmitype/StillImage"/>
    <dc:title/>
   </cc:Work>
  </rdf:RDF>
 </metadata>
 <path transform="scale(.26)" d="m29 18-0.81 3.4-0.082 0.35-0.014 0.082c-0.68 4.5-1.2 9.3-0.49 14l0.045 0.32 0.15 0.29c1.5 2.9 1.5 6.7 0.93 10-0.3 0.88-0.76 1.2-1.9 1.5-1.2 0.38-2.8 0.55-4.5 1.3l-2.3 1.1 1.7 1.9c-0.073-0.081 0.13 0.53 0.44 1.6 0.15 0.52 0.39 1.2 1.1 1.8 0.61 0.52 1.5 0.72 2.3 0.68 1.8 0.21 3.8 0.2 5.2 0.55 1.5 0.35 2.1 0.68 2.5 2.1l0.016 0.059c0.35 1.3-0.09 2.4-0.85 4.1-0.76 1.7-1.9 3.8-1.4 6.5l0.016 0.1 0.029 0.1c-0.12-0.39-0.12 0.32-0.41 1.2-0.15 0.45-0.33 0.94-0.32 1.7 0.017 0.76 0.64 2 1.5 2.4l0.2 0.088 0.21 0.045c1.2 0.25 2.8 0.52 4.4 0.21 1.5-0.29 3.3-1.5 3.9-3.3l2e-3 -2e-3c0.37-0.81 1.1-1.5 1.8-1.8 0.7-0.32 1.3-0.37 2 0.051l0.27 0.15 0.3 0.061c3.6 0.68 7.1 1.5 8.7 4.1l0.16 0.25 0.22 0.19c1.2 1 2.6 1.2 3.8 1.2 1.2-7.1e-4 2.2-0.2 2.9-0.27l2.1-0.21-0.46-2.1c-0.27-1.2-0.34-2.5-0.12-3.5 0.22-1 0.62-1.7 1.5-2.2l0.037-0.031 0.037-0.021c4.9-3.1 11-7.3 12-14l0.029-0.24-0.029-0.24c-0.19-1.5-0.93-2.6-1.4-3.5-0.46-0.83-0.66-1.3-0.61-1.9l0.023-0.26-0.053-0.25c-0.25-1.3-0.083-3.3-0.26-5.5-0.17-2.1-0.91-4.7-3.3-6.2l-0.13-0.088-0.16-0.066c-2.6-1.1-5.3 0.094-6.8 1.8-1.5 1.7-2.4 3.9-2.3 6.1-0.0098 1.8-2.3 2.7-3.7 1.8l-0.15-0.09c-1.5-0.8-3.3-1.9-4.4-3.1-1.1-1.2-1.5-2.2-1.1-3.7 8e-4 -0.0027-8.2e-4 -0.0031 0-0.0059 1.5-4.7 5.2-9.9 4.7-16l-0.18-2.2-2.2 0.54c-2.3 0.56-3.8 2-5 3.4-1.1 1.3-1.9 2.6-2.8 3.6-2.4 1.4-5.9 1-9.7 0.96-0.73-0.063-1-0.24-1.3-0.57-0.32-0.33-0.64-0.92-0.94-1.7-0.6-1.6-0.97-3.9-2.7-5.8zm22 97-3.4 3.9c-0.58 0.66-1.6 1.1-2.8 1.1-1.2 0.036-2.4-0.35-3.1-0.91-0.012-0.025-0.0098-0.018-0.021-0.045-0.063-0.15-0.13-0.32-0.19-0.49-0.031-0.081-0.06-0.15-0.11-0.27-0.025-0.056-0.042-0.11-0.12-0.25-0.041-0.07-0.24-0.33-0.24-0.33-0.0014-1e-3 -0.4-0.33-0.4-0.33-5.9e-4 -3.7e-4 -0.43-0.19-0.43-0.19-5.4e-4 -1.7e-4 -0.66-0.09-0.66-0.09l-2.7 0.13 0.88 2.2c0.14 4.2-0.26 8.9 1.3 14l0.16 0.46 0.37 0.33c0.33 0.29 0.31 0.36 0.31 0.46 0.0049 0.1-0.043 0.35-0.27 0.69-0.44 0.69-1.6 1.6-2.3 1.9l-0.13 0.051-0.12 0.074c-3.6 2.1-8 2.5-13 3.1l-0.14 0.022-0.14 0.037c-0.46 0.13-0.97 0.33-1.4 0.84-0.45 0.51-0.65 1.3-0.57 1.9 0.16 1.1 0.69 1.6 1.1 2 0.89 0.91 2 1.7 2.3 1.9l0.73 0.62 0.93-0.22c1.7-0.41 2.7-1.6 3.5-2.4 0.78-0.84 1.4-1.4 1.8-1.5l0.11-0.037 0.1-0.045c3-1.4 5.9-2.7 8.4-2.3 0.011 0.023 0.079 0.055 0.088 0.08 0.036 0.097 0.062 0.29-0.014 0.57-0.15 0.56-0.78 1.3-1.2 1.5l-0.23 0.088-0.2 0.15c-1.2 0.87-2.3 2.1-3 3.6-0.61 1.5-0.56 3.5 0.63 5.1 0.72 1.2 1.3 2.7 1.3 3.9 0.043 1.3-0.24 2.1-1.3 2.9l-0.088 0.066-0.08 0.074c-0.91 0.82-2.4 1.5-3.9 2.7l-1.8 1.4 1.7 1.5c1 0.9 2.4 1.3 3.6 1 1.2-0.25 2.1-0.95 2.8-1.7l0.029-0.037 0.037-0.045c-0.14 0.18 0.39-0.18 1.2-0.52 0.41-0.17 0.9-0.37 1.4-0.82 0.53-0.45 1.1-1.4 1-2.3v-0.21l-0.059-0.21c-0.26-1-0.22-2.7 0.19-3.7 0.2-0.5 0.46-0.82 0.69-0.99 0.23-0.16 0.48-0.25 1-0.2 3 0.51 6 1.3 8.4 2.8l2.1 1.4-2 0.31 0.08-0.53c-0.53 1.8-1.5 3.7-2.4 5.9l-0.83 2.2 2.3 0.36c1.8 0.28 4 0.38 5.9-0.21l2.6-0.81-1.7-2.2c-0.67-0.84-1-2.1-1.5-3.3l0.1 0.066-2-5.4c-0.14-0.39-0.089-0.92 0.066-1.2 0.16-0.29 0.2-0.36 0.58-0.35l0.48 8e-3 0.44-0.22c1.7-0.88 3.3-2.1 4.6-3.8 1.2-1.7 2-3.8 1.6-6.2l-0.0078-0.037v-0.029c0.037 0.19-0.01-0.24 0.0078-0.67 0.017-0.43 0.051-0.96 0.066-1.5 0.016-0.52 0.058-0.95-0.1-1.6-0.081-0.34-0.13-1-1.2-1.5-0.52-0.24-1.2-0.2-1.6-0.051-0.39 0.15-0.6 0.34-0.77 0.49l-0.031 0.029-0.029 0.029c-0.35 0.36-0.56 0.44-0.86 0.47-0.3 0.034-0.74-0.028-1.3-0.24-1.1-0.43-2.4-1.5-3.3-2.3l-0.0059-8e-3h-0.0078c-0.86-0.8-0.91-1.6-0.81-3.1 0.1-1.5 0.58-3.4-0.0078-5.6l-0.18-0.69-0.59-0.4c-1.9-1.3-2.4-3.9-2.4-6.6zm-11 7.2c0.012 2e-3 0.023 4e-3 0.035 6e-3 2.1e-5 2e-3 -2.1e-5 4e-3 0 6e-3zm30 6.1c-0.13 0.42-0.26 0.84-0.38 1.2l-0.021 0.066-0.016 0.072c-0.13 0.57-0.51 1.5-0.85 2.5-0.34 1-0.72 2.2-0.34 3.7l0.72 2.7 2.3-1.7c1.5-1.1 2.1-2.8 2.3-4.2 0.22-1.5 0.11-2.8 0.043-3.9zm-31 12-0.25 0.13c0.028-0.011 0.047-0.049 0.074-0.061 0.057-0.033 0.12-0.033 0.18-0.066zm24 1.1-0.061 0.061c-0.063 0.06-0.18 0.19-0.49 0.31-0.035 0.014-0.11-0.017-0.15-6e-3 0.22-0.17 0.51-0.15 0.71-0.36zm-23 20-0.17 0.13c0.014-0.01 0.016-0.027 0.029-0.037 0.052-0.045 0.089-0.049 0.14-0.096zm19 58-0.4 0.17c-1.9 0.83-4.3 1-6.8 1.3-2.5 0.26-5.3 0.59-7.9 2.1l-0.25 0.15-0.2 0.22c-1.4 1.6-3.4 2.3-5.7 2.6-2.3 0.27-5 0.035-7.5-0.18l-1.8-0.16-0.21 1.8c-0.33 2.8-0.54 5.4-1.8 7.1l-0.24 0.33-0.096 0.39c-0.52 2.3-2.1 5.7-0.53 9.1l0.12 0.27 0.19 0.22c2.1 2.4 4.3 3.9 5 5.8l0.22 0.67 0.61 0.35c0.67 0.4 0.88 0.96 1.1 2.2 0.21 1.2 0.2 2.9 0.96 4.6l0.4 0.89 0.96 0.18c1.5 0.3 3.1 0.18 4.6-0.49 1.4-0.63 2.6-1.9 3.1-3.6 0.19-0.46 0.64-0.64 1.1-0.6 0.49 0.041 0.66 0.028 0.7 0.65l0.0078 0.12 0.029 0.12c-0.0072-0.037-0.21 0.91-0.22 2.2-0.0029 0.32 0.013 0.7 0.19 1.2 0.17 0.46 0.58 1 1.1 1.3 0.87 0.49 1.6 0.24 2.4 0.043 1.5 0.12 3-0.29 4-1.1 1.1-0.9 1.7-2.1 2.2-3.3 0.2-0.52 0.87-1 1.4-1.1 0.54-0.1 0.73-0.12 1 0.41 0.27 0.92 0.7 1.9 1.6 2.6 1 0.82 2.8 0.93 4.1 0.21 2.5-1 4.2-3.2 4.8-5.5 0.6-2.3 0.36-4.7-0.64-6.9-0.29-1.5 0.27-3.1 1-5.1 0.77-2.1 1.7-4.7 0.65-7.6-0.32-1.1-0.6-2.5-1.2-3.9-0.53-1.3-1.4-2.7-2.9-3.6-0.17-0.29-0.3-1.1-0.54-2.3-0.13-0.71-0.34-1.6-1-2.4-0.71-0.81-1.9-1.3-3.1-1.3z" color="currentColor" fill="#d5d5d5"/>
</svg>
